Creates a dataset that help batching long-running read and writes — create_batch_glossary • REDCapR
…
#>   <int>       <int>      <int> <chr>        <chr>              <chr>            
#> 1     1           1         50 1            001                050              
#> 2     2          51        100 2            051                100              
#> # ℹ 1 more variable: label <chr>
REDCapR::create_batch_glossary(100, 25)
#> # A tibble: 4 × 7
#>      id start_index stop_index index_pretty start_index_pretty stop_index_pretty
#>   <int>       <int>      <int> <chr>        <chr>              <chr>            
#> 1     1           1         25 1            001                025              
#> 2     2          26         50 2            026                050              
#> 3     3          51         75 3            051                075              
#> 4     4          76        100 4            076                100              
#> # ℹ 1 more variable: label <chr>
REDCapR::create_batch_glossary(100,  3)
#> # A tibble: 34 × 7
#>       id start_index stop_index index_pretty start_index_pretty
#>    <int>       <int>      <int> <chr>        <chr>             
#>  1     1           1          3 01           001               
#>  2     2           4          6 02           004               
#>  3     3           7          9 03           007               
#>  4     4          10         12 04           010               
#>  5     5          13         15 05           013               
#>  6     6          16         18 06           016               
#>  7     7          19         21 07           019               
#>  8     8          22         24 08           022               
#>  9     9          25         27 09           025               
#> 10    10          28         30 10           028               
#> # ℹ 24 more rows
#> # ℹ 2 more variables: stop_index_pretty <chr>, label <chr>
…
