…
# Project with two arms
token_2  <- "DA6F2BB23146BD5A7EA3408C1A44A556" # "longitudinal" test project
REDCapR::redcap_arm_export(redcap_uri=uri, token=token_2)$data
#> The list of arms was retrieved from the REDCap project in 0.1 seconds. The http status code was 200.
#> # A tibble: 2 × 2
#>   arm_number arm_name
#>        <int> <chr>   
#> 1          1 Drug A  
#> 2          2 Drug B  
REDCapR::redcap_event_instruments(redcap_uri=uri, token=token_2)$data
#> 25 event instrument metadata records were read from REDCap in 0.1 seconds.  The http status code was 200.
#> # A tibble: 25 × 3
#>    arm_num unique_event_name form                        
#>      <int> <chr>             <chr>                       
#>  1       1 enrollment_arm_1  demographics                
#>  2       1 enrollment_arm_1  contact_info                
#>  3       1 enrollment_arm_1  baseline_data               
#>  4       1 dose_1_arm_1      patient_morale_questionnaire
#>  5       1 visit_1_arm_1     visit_lab_data              
#>  6       1 visit_1_arm_1     patient_morale_questionnaire
#>  7       1 visit_1_arm_1     visit_blood_workup          
#>  8       1 visit_1_arm_1     visit_observed_behavior     
#>  9       1 dose_2_arm_1      patient_morale_questionnaire
#> 10       1 visit_2_arm_1     visit_lab_data              
#> # ℹ 15 more rows
REDCapR::redcap_event_instruments(redcap_uri=uri, token=token_2, arms = c("1", "2"))$data
#> 25 event instrument metadata records were read from REDCap in 0.1 seconds.  The http status code was 200.
#> # A tibble: 25 × 3
#>    arm_num unique_event_name form                        
#>      <int> <chr>             <chr>                       
#>  1       1 enrollment_arm_1  demographics                
#>  2       1 enrollment_arm_1  contact_info                
#>  3       1 enrollment_arm_1  baseline_data               
#>  4       1 dose_1_arm_1      patient_morale_questionnaire
#>  5       1 visit_1_arm_1     visit_lab_data              
#>  6       1 visit_1_arm_1     patient_morale_questionnaire
#>  7       1 visit_1_arm_1     visit_blood_workup          
#>  8       1 visit_1_arm_1     visit_observed_behavior     
#>  9       1 dose_2_arm_1      patient_morale_questionnaire
#> 10       1 visit_2_arm_1     visit_lab_data              
#> # ℹ 15 more rows
…
