Export the metadata of a REDCap project — redcap_metadata_read • REDCapR
…
# A longitudinal project (pid 212)
token <- "0434F0E9CF53ED0587847AB6E51DE762"
REDCapR::redcap_metadata_read(redcap_uri=uri, token=token)
#> The data dictionary describing 95 fields was read from REDCap in 0.1 seconds.  The http status code was 200.
#> $data
#> # A tibble: 95 × 18
#>    field_name    form_…¹ secti…² field…³ field…⁴ selec…⁵ field…⁶ text_…⁷ text_…⁸
#>    <chr>         <chr>   <chr>   <chr>   <chr>   <chr>   <chr>   <chr>   <chr>  
#>  1 study_id      demogr… NA      text    Study … NA      NA      NA      NA     
#>  2 date_enrolled demogr… Consen… text    Date s… NA      YYYY-M… date_y… NA     
#>  3 patient_docu… demogr… NA      file    Upload… NA      NA      NA      NA     
#>  4 first_name    demogr… Contac… text    First … NA      NA      NA      NA     
#>  5 last_name     demogr… NA      text    Last N… NA      NA      NA      NA     
#>  6 telephone_1   demogr… NA      text    Phone … NA      Includ… phone   NA     
#>  7 email         demogr… NA      text    E-mail  NA      NA      email   NA     
#>  8 dob           demogr… NA      text    Date o… NA      NA      date_y… NA     
#>  9 age           demogr… NA      calc    Age (y… roundd… NA      NA      NA     
#> 10 ethnicity     demogr… NA      radio   Ethnic… 0, His… NA      NA      NA     
#> # … with 85 more rows, 9 more variables: text_validation_max <chr>,
#> #   identifier <chr>, branching_logic <chr>, required_field <chr>,
#> #   custom_alignment <chr>, question_number <chr>, matrix_group_name <chr>,
#> #   matrix_ranking <chr>, field_annotation <chr>, and abbreviated variable
#> #   names ¹​form_name, ²​section_header, ³​field_type, ⁴​field_label,
#> #   ⁵​select_choices_or_calculations, ⁶​field_note,
#> #   ⁷​text_validation_type_or_show_slider_number, ⁸​text_validation_min
…
