Export project information. — redcap_project_info_read • REDCapR
…
# Inspect values stored on the server.
d_all$data
#> # A tibble: 30 × 26
#>    project_id project_title              creation_time       production_time
#>         <int> <chr>                      <dttm>              <dttm>         
#>  1         33 REDCapR: simple            2024-10-10 20:21:18 NA             
#>  2         34 REDCapR: longitudinal      2024-10-10 20:40:17 NA             
#>  3         36 REDCapR: simple-write      2024-10-11 10:17:14 NA             
#>  4         37 REDCapR: russian           2024-10-11 10:54:17 NA             
#>  5         38 REDCapR: empty rows        2024-10-11 11:00:48 NA             
#>  6         39 REDCapR: single-column     2024-10-11 15:21:13 NA             
#>  7         40 REDCapR: super-wide-1      2024-10-11 16:25:14 NA             
#>  8         41 REDCapR: survey            2024-10-11 16:37:48 NA             
#>  9         42 REDCapR: clinical-trial-1  2024-10-11 17:08:59 NA             
#> 10         43 REDCapR: nonnumeric-recor… 2024-10-11 17:16:08 NA             
#> # ℹ 20 more rows
#> # ℹ 22 more variables: in_production <lgl>, project_language <chr>,
#> #   purpose <int>, purpose_other <chr>, project_notes <chr>,
#> #   custom_record_label <chr>, secondary_unique_field <chr>,
#> #   is_longitudinal <lgl>, has_repeating_instruments_or_events <lgl>,
#> #   surveys_enabled <lgl>, scheduling_enabled <lgl>,
#> #   record_autonumbering_enabled <lgl>, randomization_enabled <lgl>, …
# or: View(d_all$data)

# Inspect everything returned, including values like the http status code.
d_all
#> # A tibble: 30 × 6
#>    data$project_id success status_code outcome_message  elapsed_seconds raw_text
#>              <int> <lgl>         <int> <chr>                      <dbl> <chr>   
#>  1              33 TRUE            200 1 rows were rea…           0.129 ""      
#>  2              34 TRUE            200 1 rows were rea…           0.128 ""      
#>  3              36 TRUE            200 1 rows were rea…           0.138 ""      
#>  4              37 TRUE            200 1 rows were rea…           0.162 ""      
#>  5              38 TRUE            200 1 rows were rea…           0.137 ""      
#>  6              39 TRUE            200 1 rows were rea…           0.133 ""      
#>  7              40 TRUE            200 1 rows were rea…           0.179 ""      
#>  8              41 TRUE            200 1 rows were rea…           0.133 ""      
#>  9              42 TRUE            200 1 rows were rea…           0.140 ""      
#> 10              43 TRUE            200 1 rows were rea…           0.130 ""      
#> # ℹ 20 more rows
#> # ℹ 25 more variables: data$project_title <chr>, $creation_time <dttm>,
#> #   $production_time <dttm>, $in_production <lgl>, $project_language <chr>,
#> #   $purpose <int>, $purpose_other <chr>, $project_notes <chr>,
#> #   $custom_record_label <chr>, $secondary_unique_field <chr>,
#> #   $is_longitudinal <lgl>, $has_repeating_instruments_or_events <lgl>,
#> #   $surveys_enabled <lgl>, $scheduling_enabled <lgl>, …
…
