…
$fields_collapsed
[1] ""

$elapsed_seconds
[1] 0.1433709

$raw_text
[1] ""

---- longitudinal project w/ stored token--------------------------
Credential file exists: TRUE
The data dictionary describing 95 fields was read from REDCap in 0.2 seconds.  The http status code was 200.
$data
# A tibble: 95 × 18
   field_name       form_name    section_header      field_type field_label     
   <chr>            <chr>        <chr>               <chr>      <chr>           
 1 study_id         demographics <NA>                text       Study ID        
 2 date_enrolled    demographics Consent Information text       Date subject si…
 3 patient_document demographics <NA>                file       Upload the pati…
 4 first_name       demographics Contact Information text       First Name      
 5 last_name        demographics <NA>                text       Last Name       
 6 telephone_1      demographics <NA>                text       Phone number    
 7 email            demographics <NA>                text       E-mail          
 8 dob              demographics <NA>                text       Date of birth   
 9 age              demographics <NA>                text       Age (years)     
10 ethnicity        demographics <NA>                radio      Ethnicity       
# ℹ 85 more rows
# ℹ 13 more variables: select_choices_or_calculations <chr>, field_note <chr>,
#   text_validation_type_or_show_slider_number <chr>,
#   text_validation_min <chr>, text_validation_max <chr>, identifier <chr>,
#   branching_logic <chr>, required_field <chr>, custom_alignment <chr>,
#   question_number <chr>, matrix_group_name <chr>, matrix_ranking <chr>,
#   field_annotation <chr>
…
$fields_collapsed
[1] ""

$elapsed_seconds
[1] 0.1464875

$raw_text
[1] ""

---- longitudinal project w/ stored token--------------------------
Credential file exists: TRUE
The data dictionary describing 95 fields was read from REDCap in 0.2 seconds.  The http status code was 200.
$data
# A tibble: 95 × 18
   field_name       form_name    section_header      field_type field_label     
   <chr>            <chr>        <chr>               <chr>      <chr>           
 1 study_id         demographics <NA>                text       Study ID        
 2 date_enrolled    demographics Consent Information text       Date subject si…
 3 patient_document demographics <NA>                file       Upload the pati…
 4 first_name       demographics Contact Information text       First Name      
 5 last_name        demographics <NA>                text       Last Name       
 6 telephone_1      demographics <NA>                text       Phone number    
 7 email            demographics <NA>                text       E-mail          
 8 dob              demographics <NA>                text       Date of birth   
 9 age              demographics <NA>                text       Age (years)     
10 ethnicity        demographics <NA>                radio      Ethnicity       
# ℹ 85 more rows
# ℹ 13 more variables: select_choices_or_calculations <chr>, field_note <chr>,
#   text_validation_type_or_show_slider_number <chr>,
#   text_validation_min <chr>, text_validation_max <chr>, identifier <chr>,
#   branching_logic <chr>, required_field <chr>, custom_alignment <chr>,
#   question_number <chr>, matrix_group_name <chr>, matrix_ranking <chr>,
#   field_annotation <chr>
…
$fields_collapsed
[1] ""

$elapsed_seconds
[1] 0.1496165

$raw_text
[1] ""

---- longitudinal project w/ stored token--------------------------
Credential file exists: TRUE
The data dictionary describing 95 fields was read from REDCap in 0.2 seconds.  The http status code was 200.
$data
# A tibble: 95 × 18
   field_name       form_name    section_header      field_type field_label     
   <chr>            <chr>        <chr>               <chr>      <chr>           
 1 study_id         demographics <NA>                text       Study ID        
 2 date_enrolled    demographics Consent Information text       Date subject si…
 3 patient_document demographics <NA>                file       Upload the pati…
 4 first_name       demographics Contact Information text       First Name      
 5 last_name        demographics <NA>                text       Last Name       
 6 telephone_1      demographics <NA>                text       Phone number    
 7 email            demographics <NA>                text       E-mail          
 8 dob              demographics <NA>                text       Date of birth   
 9 age              demographics <NA>                text       Age (years)     
10 ethnicity        demographics <NA>                radio      Ethnicity       
# ℹ 85 more rows
# ℹ 13 more variables: select_choices_or_calculations <chr>, field_note <chr>,
#   text_validation_type_or_show_slider_number <chr>,
#   text_validation_min <chr>, text_validation_max <chr>, identifier <chr>,
#   branching_logic <chr>, required_field <chr>, custom_alignment <chr>,
#   question_number <chr>, matrix_group_name <chr>, matrix_ranking <chr>,
#   field_annotation <chr>
…
$fields_collapsed
[1] ""

$elapsed_seconds
[1] 0.1437643

$raw_text
[1] ""

---- longitudinal project w/ stored token--------------------------
Credential file exists: TRUE
The data dictionary describing 95 fields was read from REDCap in 0.2 seconds.  The http status code was 200.
$data
# A tibble: 95 × 18
   field_name       form_name    section_header      field_type field_label     
   <chr>            <chr>        <chr>               <chr>      <chr>           
 1 study_id         demographics <NA>                text       Study ID        
 2 date_enrolled    demographics Consent Information text       Date subject si…
 3 patient_document demographics <NA>                file       Upload the pati…
 4 first_name       demographics Contact Information text       First Name      
 5 last_name        demographics <NA>                text       Last Name       
 6 telephone_1      demographics <NA>                text       Phone number    
 7 email            demographics <NA>                text       E-mail          
 8 dob              demographics <NA>                text       Date of birth   
 9 age              demographics <NA>                text       Age (years)     
10 ethnicity        demographics <NA>                radio      Ethnicity       
# ℹ 85 more rows
# ℹ 13 more variables: select_choices_or_calculations <chr>, field_note <chr>,
#   text_validation_type_or_show_slider_number <chr>,
#   text_validation_min <chr>, text_validation_max <chr>, identifier <chr>,
#   branching_logic <chr>, required_field <chr>, custom_alignment <chr>,
#   question_number <chr>, matrix_group_name <chr>, matrix_ranking <chr>,
#   field_annotation <chr>
…
$fields_collapsed
[1] ""

$elapsed_seconds
[1] 0.1496959

$raw_text
[1] ""

---- longitudinal project w/ stored token--------------------------
Credential file exists: TRUE
The data dictionary describing 95 fields was read from REDCap in 0.2 seconds.  The http status code was 200.
$data
# A tibble: 95 × 18
   field_name       form_name    section_header      field_type field_label     
   <chr>            <chr>        <chr>               <chr>      <chr>           
 1 study_id         demographics <NA>                text       Study ID        
 2 date_enrolled    demographics Consent Information text       Date subject si…
 3 patient_document demographics <NA>                file       Upload the pati…
 4 first_name       demographics Contact Information text       First Name      
 5 last_name        demographics <NA>                text       Last Name       
 6 telephone_1      demographics <NA>                text       Phone number    
 7 email            demographics <NA>                text       E-mail          
 8 dob              demographics <NA>                text       Date of birth   
 9 age              demographics <NA>                text       Age (years)     
10 ethnicity        demographics <NA>                radio      Ethnicity       
# ℹ 85 more rows
# ℹ 13 more variables: select_choices_or_calculations <chr>, field_note <chr>,
#   text_validation_type_or_show_slider_number <chr>,
#   text_validation_min <chr>, text_validation_max <chr>, identifier <chr>,
#   branching_logic <chr>, required_field <chr>, custom_alignment <chr>,
#   question_number <chr>, matrix_group_name <chr>, matrix_ranking <chr>,
#   field_annotation <chr>
…
$fields_collapsed
[1] ""

$elapsed_seconds
[1] 0.1407044

$raw_text
[1] ""

---- longitudinal project w/ stored token--------------------------
Credential file exists: TRUE
The data dictionary describing 95 fields was read from REDCap in 0.2 seconds.  The http status code was 200.
$data
# A tibble: 95 × 18
   field_name       form_name    section_header      field_type field_label     
   <chr>            <chr>        <chr>               <chr>      <chr>           
 1 study_id         demographics <NA>                text       Study ID        
 2 date_enrolled    demographics Consent Information text       Date subject si…
 3 patient_document demographics <NA>                file       Upload the pati…
 4 first_name       demographics Contact Information text       First Name      
 5 last_name        demographics <NA>                text       Last Name       
 6 telephone_1      demographics <NA>                text       Phone number    
 7 email            demographics <NA>                text       E-mail          
 8 dob              demographics <NA>                text       Date of birth   
 9 age              demographics <NA>                text       Age (years)     
10 ethnicity        demographics <NA>                radio      Ethnicity       
# ℹ 85 more rows
# ℹ 13 more variables: select_choices_or_calculations <chr>, field_note <chr>,
#   text_validation_type_or_show_slider_number <chr>,
#   text_validation_min <chr>, text_validation_max <chr>, identifier <chr>,
#   branching_logic <chr>, required_field <chr>, custom_alignment <chr>,
#   question_number <chr>, matrix_group_name <chr>, matrix_ranking <chr>,
#   field_annotation <chr>
…
$fields_collapsed
[1] ""

$elapsed_seconds
[1] 0.1383016

$raw_text
[1] ""

---- longitudinal project w/ stored token--------------------------
Credential file exists: TRUE
The data dictionary describing 95 fields was read from REDCap in 0.2 seconds.  The http status code was 200.
$data
# A tibble: 95 × 18
   field_name       form_name    section_header      field_type field_label     
   <chr>            <chr>        <chr>               <chr>      <chr>           
 1 study_id         demographics <NA>                text       Study ID        
 2 date_enrolled    demographics Consent Information text       Date subject si…
 3 patient_document demographics <NA>                file       Upload the pati…
 4 first_name       demographics Contact Information text       First Name      
 5 last_name        demographics <NA>                text       Last Name       
 6 telephone_1      demographics <NA>                text       Phone number    
 7 email            demographics <NA>                text       E-mail          
 8 dob              demographics <NA>                text       Date of birth   
 9 age              demographics <NA>                text       Age (years)     
10 ethnicity        demographics <NA>                radio      Ethnicity       
# ℹ 85 more rows
# ℹ 13 more variables: select_choices_or_calculations <chr>, field_note <chr>,
#   text_validation_type_or_show_slider_number <chr>,
#   text_validation_min <chr>, text_validation_max <chr>, identifier <chr>,
#   branching_logic <chr>, required_field <chr>, custom_alignment <chr>,
#   question_number <chr>, matrix_group_name <chr>, matrix_ranking <chr>,
#   field_annotation <chr>
…
$fields_collapsed
[1] ""

$elapsed_seconds
[1] 0.146631

$raw_text
[1] ""

---- longitudinal project w/ stored token--------------------------
Credential file exists: TRUE
The data dictionary describing 95 fields was read from REDCap in 0.2 seconds.  The http status code was 200.
$data
# A tibble: 95 × 18
   field_name       form_name    section_header      field_type field_label     
   <chr>            <chr>        <chr>               <chr>      <chr>           
 1 study_id         demographics <NA>                text       Study ID        
 2 date_enrolled    demographics Consent Information text       Date subject si…
 3 patient_document demographics <NA>                file       Upload the pati…
 4 first_name       demographics Contact Information text       First Name      
 5 last_name        demographics <NA>                text       Last Name       
 6 telephone_1      demographics <NA>                text       Phone number    
 7 email            demographics <NA>                text       E-mail          
 8 dob              demographics <NA>                text       Date of birth   
 9 age              demographics <NA>                text       Age (years)     
10 ethnicity        demographics <NA>                radio      Ethnicity       
# ℹ 85 more rows
# ℹ 13 more variables: select_choices_or_calculations <chr>, field_note <chr>,
#   text_validation_type_or_show_slider_number <chr>,
#   text_validation_min <chr>, text_validation_max <chr>, identifier <chr>,
#   branching_logic <chr>, required_field <chr>, custom_alignment <chr>,
#   question_number <chr>, matrix_group_name <chr>, matrix_ranking <chr>,
#   field_annotation <chr>
…
$fields_collapsed
[1] ""

$elapsed_seconds
[1] 0.1340029

$raw_text
[1] ""

---- longitudinal project w/ stored token--------------------------
Credential file exists: TRUE
The data dictionary describing 95 fields was read from REDCap in 0.2 seconds.  The http status code was 200.
$data
# A tibble: 95 × 18
   field_name       form_name    section_header      field_type field_label     
   <chr>            <chr>        <chr>               <chr>      <chr>           
 1 study_id         demographics <NA>                text       Study ID        
 2 date_enrolled    demographics Consent Information text       Date subject si…
 3 patient_document demographics <NA>                file       Upload the pati…
 4 first_name       demographics Contact Information text       First Name      
 5 last_name        demographics <NA>                text       Last Name       
 6 telephone_1      demographics <NA>                text       Phone number    
 7 email            demographics <NA>                text       E-mail          
 8 dob              demographics <NA>                text       Date of birth   
 9 age              demographics <NA>                text       Age (years)     
10 ethnicity        demographics <NA>                radio      Ethnicity       
# ℹ 85 more rows
# ℹ 13 more variables: select_choices_or_calculations <chr>, field_note <chr>,
#   text_validation_type_or_show_slider_number <chr>,
#   text_validation_min <chr>, text_validation_max <chr>, identifier <chr>,
#   branching_logic <chr>, required_field <chr>, custom_alignment <chr>,
#   question_number <chr>, matrix_group_name <chr>, matrix_ranking <chr>,
#   field_annotation <chr>
…
$fields_collapsed
[1] ""

$elapsed_seconds
[1] 0.142642

$raw_text
[1] ""

---- longitudinal project w/ stored token--------------------------
Credential file exists: TRUE
The data dictionary describing 95 fields was read from REDCap in 0.2 seconds.  The http status code was 200.
$data
# A tibble: 95 × 18
   field_name       form_name    section_header      field_type field_label     
   <chr>            <chr>        <chr>               <chr>      <chr>           
 1 study_id         demographics <NA>                text       Study ID        
 2 date_enrolled    demographics Consent Information text       Date subject si…
 3 patient_document demographics <NA>                file       Upload the pati…
 4 first_name       demographics Contact Information text       First Name      
 5 last_name        demographics <NA>                text       Last Name       
 6 telephone_1      demographics <NA>                text       Phone number    
 7 email            demographics <NA>                text       E-mail          
 8 dob              demographics <NA>                text       Date of birth   
 9 age              demographics <NA>                text       Age (years)     
10 ethnicity        demographics <NA>                radio      Ethnicity       
# ℹ 85 more rows
# ℹ 13 more variables: select_choices_or_calculations <chr>, field_note <chr>,
#   text_validation_type_or_show_slider_number <chr>,
#   text_validation_min <chr>, text_validation_max <chr>, identifier <chr>,
#   branching_logic <chr>, required_field <chr>, custom_alignment <chr>,
#   question_number <chr>, matrix_group_name <chr>, matrix_ranking <chr>,
#   field_annotation <chr>
…
$fields_collapsed
[1] ""

$elapsed_seconds
[1] 0.1400197

$raw_text
[1] ""

---- longitudinal project w/ stored token--------------------------
Credential file exists: TRUE
The data dictionary describing 95 fields was read from REDCap in 0.2 seconds.  The http status code was 200.
$data
# A tibble: 95 × 18
   field_name       form_name    section_header      field_type field_label     
   <chr>            <chr>        <chr>               <chr>      <chr>           
 1 study_id         demographics <NA>                text       Study ID        
 2 date_enrolled    demographics Consent Information text       Date subject si…
 3 patient_document demographics <NA>                file       Upload the pati…
 4 first_name       demographics Contact Information text       First Name      
 5 last_name        demographics <NA>                text       Last Name       
 6 telephone_1      demographics <NA>                text       Phone number    
 7 email            demographics <NA>                text       E-mail          
 8 dob              demographics <NA>                text       Date of birth   
 9 age              demographics <NA>                text       Age (years)     
10 ethnicity        demographics <NA>                radio      Ethnicity       
# ℹ 85 more rows
# ℹ 13 more variables: select_choices_or_calculations <chr>, field_note <chr>,
#   text_validation_type_or_show_slider_number <chr>,
#   text_validation_min <chr>, text_validation_max <chr>, identifier <chr>,
#   branching_logic <chr>, required_field <chr>, custom_alignment <chr>,
#   question_number <chr>, matrix_group_name <chr>, matrix_ranking <chr>,
#   field_annotation <chr>
…
