Writing to a REDCap Project • REDCapR
…
There are two tables, each with a different granularity:

ds_patient: each row represents one patient,

ds_daily: each row represents one daily measurement per
patient.

ds_patient <-
  "test-data/vignette-repeating-write/data-patient.rds" |>
  system.file(package = "REDCapR") |>
  readr::read_rds()

ds_patient
#> # A tibble: 34 × 126
#>    id_code date       is_mobile is_mobile_where initials unique_initials
#>    <chr>   <date>     <chr>     <chr>           <chr>    <chr>          
#>  1 07      2016-07-05 0         NA              AB       AB             
#>  2 15      2016-09-09 0         NA              EF       EF             
#>  3 23      2016-11-16 0         NA              IJ       IJ             
#>  4 37      2016-10-04 0         NA              MN       MN             
#>  5 45      2016-02-23 0         NA              QR       QR             
#>  6 52      2016-12-25 1         5               UV       UV             
#>  7 65      2016-10-10 0         NA              YZ       YZ             
#>  8 70      2017-02-04 1         7               CD       CD             
#>  9 76      2017-04-17 1         1               GH       GH             
#> 10 80      2017-04-09 0         NA              KL       KL             
#> # ℹ 24 more rows
#> # ℹ 120 more variables: initials_mother <chr>, unique_initials_mother <chr>,
#> #   birth_month <chr>, unique_birth_month <chr>, birth_year <dbl>,
#> #   simulated_dob <chr>, age_at_enrollment <chr>, race <chr>,
#> #   unique_race <chr>, is_hispanic <chr>, sex_at_birth <chr>,
#> #   unique_sex_at_birth <chr>, gender <chr>, unique_idcode <chr>,
#> #   is_homeless <chr>, is_homeless_length <dbl>, is_homeless_units <chr>, …

ds_daily <-
  "test-data/vignette-repeating-write/data-daily.rds" |>
  system.file(package = "REDCapR") |>
  readr::read_rds()

ds_daily
#> # A tibble: 65 × 188
#>    id_code da_date    da_is_mobile da_is_mobile_where da_encounter_type
#>    <chr>   <date>     <chr>        <chr>              <chr>            
#>  1 07      2016-07-05 0            NA                 1                
#>  2 07      2016-09-12 0            NA                 1                
#>  3 07      2016-11-09 0            NA                 1                
#>  4 07      2018-11-11 0            NA                 1                
#>  5 15      2016-09-09 0            NA                 1                
#>  6 15      2016-09-28 0            NA                 1                
#>  7 23      2016-11-16 0            NA                 1                
#>  8 23      2017-02-01 0            NA                 1                
#>  9 23      2017-06-27 0            NA                 1                
#> 10 23      2017-11-19 0            NA                 1                
#> # ℹ 55 more rows
#> # ℹ 183 more variables: da_visit_reason___1 <lgl>, da_visit_reason___2 <lgl>,
#> #   da_visit_reason___3 <lgl>, da_visit_reason___4 <lgl>,
#> #   da_visit_reason___5 <lgl>, da_visit_reason___6 <lgl>,
#> #   da_visit_reason___7 <lgl>, da_visit_reason___8 <lgl>,
#> #   da_visit_reason___9 <lgl>, da_visit_reason___10 <lgl>,
#> #   da_visit_reason___13 <lgl>, da_visit_reason___12 <lgl>, …
…
# Check for potential problems.  (Remember zero rows are good.)
REDCapR::validate_for_write(ds_daily, convert_logical_to_integer = TRUE)
#> # A tibble: 0 × 4
#> # ℹ 4 variables: field_name <chr>, field_index <int>, concern <chr>,
#> #   suggestion <chr>

ds_daily
#> # A tibble: 65 × 191
#>    id_code redcap_repeat_instru…¹ redcap_repeat_instance da_date    da_is_mobile
#>    <chr>   <chr>                                   <int> <date>     <chr>       
#>  1 07      daily                                       1 2016-07-05 0           
#>  2 07      daily                                       2 2016-09-12 0           
#>  3 07      daily                                       3 2016-11-09 0           
#>  4 07      daily                                       4 2018-11-11 0           
#>  5 15      daily                                       1 2016-09-09 0           
#>  6 15      daily                                       2 2016-09-28 0           
#>  7 23      daily                                       1 2016-11-16 0           
#>  8 23      daily                                       2 2017-02-01 0           
#>  9 23      daily                                       3 2017-06-27 0           
#> 10 23      daily                                       4 2017-11-19 0           
#> # ℹ 55 more rows
#> # ℹ abbreviated name: ¹​redcap_repeat_instrument
#> # ℹ 186 more variables: da_is_mobile_where <chr>, da_encounter_type <chr>,
#> #   da_visit_reason___1 <lgl>, da_visit_reason___2 <lgl>,
#> #   da_visit_reason___3 <lgl>, da_visit_reason___4 <lgl>,
#> #   da_visit_reason___5 <lgl>, da_visit_reason___6 <lgl>,
#> #   da_visit_reason___7 <lgl>, da_visit_reason___8 <lgl>, …
…
